..........................
----------------------------------------------------------------------
Ran 26 tests in 0.253s

OK
Name             Stmts   Miss Branch BrPart  Cover   Missing
------------------------------------------------------------
Collatz.py          71      1     28      2    97%   90, 89->90, 121->123
TestCollatz.py     103      0      0      0   100%
------------------------------------------------------------
TOTAL              174      1     28      2    99%
