............
----------------------------------------------------------------------
Ran 12 tests in 0.272s

OK
Name             Stmts   Miss Branch BrPart  Cover   Missing
------------------------------------------------------------
Collatz.py          58      4     32      4    91%   76, 78, 86, 88, 75->76, 77->78, 85->86, 87->88
TestCollatz.py      51      0      0      0   100%
------------------------------------------------------------
TOTAL              109      4     32      4    94%